{
  "lidars": [
    {
      "input": "file",
      "pose": {
        "orientation": [
          [
            -0.999033033848,
            0.043842993677,
            0.003243257990
          ],
          [
            -0.043639000505,
            -0.997888982296,
            0.048094552010
          ],
          [
            0.005345021375,
            0.047906525433,
            0.998837471008
          ]
        ],
        "position": [
            -11.985600471497,
            10.576787948608,
            2.736553192139
          ]
        },
      "type": "ouster_os1",
      "config_filename": "ouster_lidar_config.json",
      "filename": "tracking_record.pcap"
    }
  ],
  "mode": "static",
  "tracking": {
    "enable": true
  }
}